A 01 VOID
A 02 DANGEROUS
A 03 DANGEROUS
A 04 SAFE
A 05 SAFE
A 06 SAFE
A 07 VOID
A 08 VOID
A 09 SAFE
A 10 SAFE
A 11 SAFE
A 12 SAFE
A 13 SAFE
A 14 DANGEROUS
B 01 DANGEROUS
B 02 LIFEBOAT
B 03 DANGEROUS
B 04 DANGEROUS
B 05 SAFE
B 06 DANGEROUS
B 07 VOID
B 08 DANGEROUS
B 09 DANGEROUS
B 10 SAFE
B 11 DANGEROUS
B 12 DANGEROUS
B 13 LIFEBOAT
B 14 DANGEROUS
C 01 SAFE
C 02 DANGEROUS
C 03 DANGEROUS
C 04 DANGEROUS
C 05 DANGEROUS
C 06 DANGEROUS
C 07 DANGEROUS
C 08 DANGEROUS
C 09 DANGEROUS
C 10 DANGEROUS
C 11 DANGEROUS
C 12 DANGEROUS
C 13 DANGEROUS
C 14 SAFE
D 01 VOID
D 02 DANGEROUS
D 03 DANGEROUS
D 04 VOID
D 05 DANGEROUS
D 06 VOID
D 07 VOID
D 08 DANGEROUS
D 09 DANGEROUS
D 10 SAFE
D 11 DANGEROUS
D 12 DANGEROUS
D 13 DANGEROUS
D 14 SAFE
E 01 VOID
E 02 SAFE
E 03 DANGEROUS
E 04 DANGEROUS
E 05 DANGEROUS
E 06 DANGEROUS
E 07 VOID
E 08 DANGEROUS
E 09 DANGEROUS
E 10 DANGEROUS
E 11 DANGEROUS
E 12 SAFE
E 13 DANGEROUS
E 14 VOID
F 01 SAFE
F 02 DANGEROUS
F 03 DANGEROUS
F 04 DANGEROUS
F 05 DANGEROUS
F 06 DANGEROUS
F 07 DANGEROUS
F 08 DANGEROUS
F 09 DANGEROUS
F 10 SAFE
F 11 DANGEROUS
F 12 VOID
F 13 VOID
F 14 VOID
G 01 DANGEROUS
G 02 DANGEROUS
G 03 DANGEROUS
G 04 DANGEROUS
G 05 DANGEROUS
G 06 DANGEROUS
G 07 SAFE
G 08 DANGEROUS
G 09 DANGEROUS
G 10 DANGEROUS
G 11 DANGEROUS
G 12 SAFE
G 13 DANGEROUS
G 14 SAFE
H 01 SAFE
H 02 SAFE
H 03 SAFE
H 04 DANGEROUS
H 05 VOID
H 06 DANGEROUS
H 07 SAFE
H 08 DANGEROUS
H 09 DANGEROUS
H 10 VOID
H 11 VOID
H 12 DANGEROUS
H 13 DANGEROUS
H 14 SAFE
I 01 SAFE
I 02 DANGEROUS
I 03 DANGEROUS
I 04 DANGEROUS
I 05 DANGEROUS
I 06 VOID
I 07 DANGEROUS
I 08 DANGEROUS
I 09 SAFE
I 10 DANGEROUS
I 11 DANGEROUS
I 12 VOID
I 13 DANGEROUS
I 14 SAFE
J 01 SAFE
J 02 DANGEROUS
J 03 DANGEROUS
J 04 DANGEROUS
J 05 DANGEROUS
J 06 DANGEROUS
J 07 VOID
J 08 DANGEROUS
J 09 DANGEROUS
J 10 DANGEROUS
J 11 DANGEROUS
J 12 VOID
J 13 DANGEROUS
J 14 SAFE
K 01 DANGEROUS
K 02 SAFE
K 03 DANGEROUS
K 04 DANGEROUS
K 05 SAFE
K 06 DANGEROUS
K 07 VOID
K 08 DANGEROUS
K 09 SAFE
K 10 DANGEROUS
K 11 SAFE
K 12 DANGEROUS
K 13 VOID
K 14 DANGEROUS
L 01 DANGEROUS
L 02 SAFE
L 03 DANGEROUS
L 04 SAFE
L 05 DANGEROUS
L 06 ALIEN
L 07 VOID
L 08 HUMAN
L 09 SAFE
L 10 DANGEROUS
L 11 SAFE
L 12 DANGEROUS
L 13 DANGEROUS
L 14 SAFE
M 01 DANGEROUS
M 02 SAFE
M 03 DANGEROUS
M 04 DANGEROUS
M 05 SAFE
M 06 DANGEROUS
M 07 VOID
M 08 DANGEROUS
M 09 SAFE
M 10 DANGEROUS
M 11 SAFE
M 12 DANGEROUS
M 13 DANGEROUS
M 14 DANGEROUS
N 01 DANGEROUS
N 02 DANGEROUS
N 03 SAFE
N 04 DANGEROUS
N 05 DANGEROUS
N 06 DANGEROUS
N 07 VOID
N 08 DANGEROUS
N 09 DANGEROUS
N 10 DANGEROUS
N 11 DANGEROUS
N 12 DANGEROUS
N 13 DANGEROUS
N 14 SAFE
O 01 VOID
O 02 DANGEROUS
O 03 VOID
O 04 VOID
O 05 SAFE
O 06 DANGEROUS
O 07 DANGEROUS
O 08 DANGEROUS
O 09 SAFE
O 10 DANGEROUS
O 11 DANGEROUS
O 12 DANGEROUS
O 13 DANGEROUS
O 14 SAFE
P 01 SAFE
P 02 DANGEROUS
P 03 SAFE
P 04 SAFE
P 05 DANGEROUS
P 06 DANGEROUS
P 07 DANGEROUS
P 08 DANGEROUS
P 09 DANGEROUS
P 10 DANGEROUS
P 11 DANGEROUS
P 12 SAFE
P 13 DANGEROUS
P 14 DANGEROUS
Q 01 SAFE
Q 02 DANGEROUS
Q 03 DANGEROUS
Q 04 SAFE
Q 05 DANGEROUS
Q 06 SAFE
Q 07 DANGEROUS
Q 08 DANGEROUS
Q 09 DANGEROUS
Q 10 DANGEROUS
Q 11 SAFE
Q 12 DANGEROUS
Q 13 DANGEROUS
Q 14 SAFE
R 01 SAFE
R 02 DANGEROUS
R 03 DANGEROUS
R 04 SAFE
R 05 DANGEROUS
R 06 SAFE
R 07 SAFE
R 08 SAFE
R 09 DANGEROUS
R 10 VOID
R 11 VOID
R 12 SAFE
R 13 DANGEROUS
R 14 VOID
S 01 VOID
S 02 DANGEROUS
S 03 VOID
S 04 DANGEROUS
S 05 DANGEROUS
S 06 DANGEROUS
S 07 DANGEROUS
S 08 DANGEROUS
S 09 DANGEROUS
S 10 VOID
S 11 VOID
S 12 DANGEROUS
S 13 DANGEROUS
S 14 VOID
T 01 VOID
T 02 DANGEROUS
T 03 VOID
T 04 VOID
T 05 DANGEROUS
T 06 DANGEROUS
T 07 SAFE
T 08 SAFE
T 09 VOID
T 10 VOID
T 11 DANGEROUS
T 12 DANGEROUS
T 13 DANGEROUS
T 14 SAFE
U 01 SAFE
U 02 DANGEROUS
U 03 DANGEROUS
U 04 DANGEROUS
U 05 SAFE
U 06 DANGEROUS
U 07 DANGEROUS
U 08 DANGEROUS
U 09 DANGEROUS
U 10 DANGEROUS
U 11 DANGEROUS
U 12 SAFE
U 13 DANGEROUS
U 14 DANGEROUS
V 01 SAFE
V 02 LIFEBOAT
V 03 DANGEROUS
V 04 DANGEROUS
V 05 DANGEROUS
V 06 DANGEROUS
V 07 VOID
V 08 SAFE
V 09 DANGEROUS
V 10 DANGEROUS
V 11 DANGEROUS
V 12 DANGEROUS
V 13 LIFEBOAT
V 14 DANGEROUS
W 01 VOID
W 02 DANGEROUS
W 03 SAFE
W 04 SAFE
W 05 SAFE
W 06 SAFE
W 07 VOID
W 08 VOID
W 09 DANGEROUS
W 10 SAFE
W 11 SAFE
W 12 SAFE
W 13 DANGEROUS
W 14 DANGEROUS